sub,ab,size,repnum,word
0,00,2,8,velvet
0,00,2,9,letter
0,00,6,5,replica
0,00,6,6,colored
0,00,4,2,wait
0,00,5,4,enemy
0,00,2,2,rhythm
0,00,2,4,dome
0,00,3,6,got
0,00,5,9,point
0,00,1,4,two
0,00,4,8,start
0,00,4,3,certain
0,00,6,2,army
0,00,3,5,leads
0,00,6,8,repeat
0,00,4,0,rich
0,00,0,1,stock
0,00,2,1,viruses
0,00,3,2,actions
0,00,7,9,burst
0,00,1,2,cities
0,00,7,6,which
0,00,4,5,bits
0,00,0,8,lesser
0,00,5,2,second
0,00,6,3,affairs
0,00,5,1,finds
0,00,7,3,affair
0,00,0,2,justice
0,00,6,0,import
0,00,3,3,village
0,00,1,8,ideas
0,00,3,4,liberal
0,00,4,6,begins
0,00,1,3,ever
0,00,1,5,via
0,00,0,4,poll
0,00,6,4,old
0,00,1,0,reduced
0,00,3,9,issues
0,00,7,7,ethical
0,00,6,9,speaker
0,00,4,4,plains
0,00,7,0,reserve
0,00,1,7,into
0,00,1,1,sides
0,00,2,5,team
0,00,7,5,scheme
0,00,3,1,count
0,00,7,8,weak
0,00,1,6,morning
0,00,0,5,boy
0,00,4,1,months
0,00,7,1,advice
0,00,3,0,amazon
0,00,0,3,gave
0,00,6,7,across
0,00,5,0,namely
0,00,7,4,leader
0,00,1,9,steps
0,00,3,8,them
0,00,0,0,reef
0,00,0,9,carry
0,00,5,7,burning
0,00,2,3,longer
0,00,5,5,retired
0,00,6,1,install
0,00,5,6,pirates
0,00,2,0,port
0,00,4,9,over
0,00,3,7,able
0,00,2,6,rose
0,00,5,3,route
0,00,0,7,railway
0,00,0,6,deemed
0,00,2,7,silver
0,00,5,8,changed
0,00,7,2,front
0,00,4,7,outside
