sub,ab,size,repnum,word
0,00,1,44,realm
0,00,1,26,nation
0,00,1,21,enables
0,00,2,25,area
0,00,0,26,seen
0,00,3,26,relying
0,00,1,22,figure
0,00,3,38,legally
0,00,1,31,feel
0,00,1,0,fifth
0,00,0,47,unions
0,00,3,42,person
0,00,4,32,holder
0,00,4,21,manner
0,00,2,30,bulk
0,00,4,10,enough
0,00,4,23,old
0,00,0,32,coast
0,00,1,25,attempt
0,00,3,24,gods
0,00,1,46,shows
0,00,3,10,held
0,00,2,34,earned
0,00,3,27,site
0,00,3,39,novel
0,00,4,27,her
0,00,2,37,mixing
0,00,2,19,rest
0,00,4,15,affect
0,00,1,9,come
0,00,1,1,floor
0,00,4,4,native
0,00,2,10,differ
0,00,4,29,social
0,00,0,15,third
0,00,4,37,banks
0,00,1,3,asset
0,00,0,10,years
0,00,4,39,poetry
0,00,1,13,launch
0,00,2,1,lie
0,00,3,44,claimed
0,00,4,25,arena
0,00,1,19,camp
0,00,3,40,gaming
0,00,3,17,total
0,00,4,17,methods
0,00,1,41,age
0,00,4,30,student
0,00,4,1,tribute
0,00,4,31,lions
0,00,4,11,mike
0,00,4,18,compact
0,00,3,36,point
0,00,2,18,yards
0,00,0,37,taking
0,00,2,2,fluid
0,00,2,3,size
0,00,0,14,winner
0,00,1,38,layers
0,00,3,7,still
0,00,0,29,soon
0,00,4,46,helps
0,00,3,25,pet
0,00,0,3,always
0,00,1,18,son
0,00,2,44,viruses
0,00,2,42,extent
0,00,4,35,fame
0,00,4,19,frank
0,00,2,14,earlier
0,00,3,41,enemies
0,00,2,29,drew
0,00,4,12,handled
0,00,3,33,half
0,00,2,4,proper
0,00,2,39,lying
0,00,1,47,valid
0,00,1,7,moon
0,00,0,25,granted
0,00,4,9,step
0,00,2,22,heated
0,00,2,7,plays
0,00,2,20,varying
0,00,4,3,base
0,00,3,30,margin
0,00,4,41,claims
0,00,0,16,pages
0,00,2,49,optical
0,00,4,26,console
0,00,1,10,genetic
0,00,3,45,bring
0,00,2,6,are
0,00,1,24,people
0,00,4,42,install
0,00,1,33,prices
0,00,1,14,solo
0,00,3,3,studios
0,00,0,33,forum
0,00,2,5,money
0,00,2,45,sync
0,00,3,46,gold
0,00,0,12,exclude
0,00,0,45,deny
0,00,3,14,taken
0,00,0,19,pitch
0,00,2,32,drawing
0,00,3,2,like
0,00,3,15,part
0,00,4,2,month
0,00,3,43,did
0,00,2,24,finding
0,00,0,40,stores
0,00,1,45,mar
0,00,3,22,holds
0,00,2,40,beyond
0,00,0,42,surplus
0,00,0,22,flag
0,00,3,23,beta
0,00,0,35,weapon
0,00,0,21,economy
0,00,2,48,empire
0,00,1,28,oxygen
0,00,4,22,huge
0,00,3,5,egg
0,00,4,45,bronze
0,00,2,41,records
0,00,0,23,wanted
0,00,2,47,upon
0,00,2,12,rounds
0,00,3,4,less
0,00,3,20,history
0,00,0,7,green
0,00,2,35,besides
0,00,2,38,spirit
0,00,0,6,wood
0,00,3,12,changed
0,00,0,11,text
0,00,2,36,dare
0,00,2,9,void
0,00,1,34,between
0,00,0,44,opera
0,00,1,35,agreed
0,00,0,41,reforms
0,00,0,30,assets
0,00,1,23,dollar
0,00,1,32,shown
0,00,4,6,beat
0,00,1,37,peter
0,00,1,2,sell
0,00,2,11,tried
0,00,3,21,comics
0,00,3,35,abuse
0,00,1,39,display
0,00,2,28,bed
0,00,0,48,virtue
0,00,4,8,arrived
0,00,1,40,god
0,00,3,11,guild
0,00,3,32,cost
0,00,0,36,customs
0,00,1,27,lighter
0,00,4,0,hill
0,00,3,9,front
0,00,0,49,vanilla
0,00,4,47,park
0,00,3,28,across
0,00,4,36,holding
0,00,1,16,little
0,00,4,43,matrix
0,00,1,8,decline
0,00,1,4,almost
0,00,0,1,intense
0,00,3,49,amend
0,00,0,24,out
0,00,0,20,side
0,00,1,48,rock
0,00,3,19,process
0,00,1,15,suggest
0,00,3,18,opened
0,00,1,42,elder
0,00,4,16,county
0,00,2,27,unit
0,00,2,46,court
0,00,1,5,charter
0,00,3,31,light
0,00,2,8,uniform
0,00,0,27,word
0,00,3,48,create
0,00,3,47,systems
0,00,4,7,effect
0,00,1,12,actors
0,00,0,0,working
0,00,2,13,horse
0,00,4,44,mark
0,00,2,0,antenna
0,00,0,38,merge
0,00,1,30,strange
0,00,4,33,budget
0,00,3,1,mount
0,00,4,28,follow
0,00,2,23,singer
0,00,2,17,pat
0,00,1,49,upper
0,00,3,8,club
0,00,2,16,leads
0,00,4,20,depend
0,00,0,18,integer
0,00,1,17,left
0,00,3,6,times
0,00,2,43,stated
0,00,1,43,much
0,00,4,34,legend
0,00,0,5,group
0,00,3,37,spent
0,00,3,0,car
0,00,4,40,van
0,00,0,39,former
0,00,0,13,months
0,00,2,15,abroad
0,00,3,29,yard
0,00,3,16,learn
0,00,4,14,neither
0,00,0,8,arctic
0,00,0,2,command
0,00,4,38,escorts
0,00,0,9,true
0,00,4,48,shortly
0,00,1,6,control
0,00,1,11,sport
0,00,0,34,brought
0,00,1,20,enabled
0,00,4,13,codes
0,00,3,34,hands
0,00,2,21,taught
0,00,0,28,shell
0,00,0,31,parts
0,00,2,26,prior
0,00,4,5,circuit
0,00,4,49,windows
0,00,2,31,string
0,00,3,13,anymore
0,00,1,29,few
0,00,0,4,unique
0,00,4,24,men
0,00,1,36,conduct
0,00,2,33,website
0,00,0,17,college
0,00,0,46,mind
0,00,0,43,onto
